Simple Modeling in R
…
Find strong differences between male/female survival probabilities.

Partition your data into even finer subgroups, e.g.age and/or embarkation port and repeat.

## # A tibble: 41 x 6
## # Groups:   Child, Fare2, Sex [16]
##    Child Fare2 Sex    Embarked propSurvived sampleSize
##    <dbl> <chr> <fct>  <fct>           <dbl>      <int>
##  1     0 <10   female C              1               2
##  2     0 <10   female Q              0.696          23
##  3     0 <10   female S              0.438          32
##  4     0 <10   male   C              0.133          30
##  5     0 <10   male   Q              0.0714         28
##  6     0 <10   male   S              0.104         201
##  7     0 10-20 female C              0.444           9
##  8     0 10-20 female Q              0.833           6
##  9     0 10-20 female S              0.756          45
## 10     0 10-20 male   C              0.455          11
## # ... with 31 more rows
…
